{"failedCount":0,"prefixedPath":"classpath:examples\/get_resource\/getResourceReqresIn.feature","packageQualifiedName":"examples.get_resource.getResourceReqresIn","loopIndex":-1,"relativePath":"examples\/get_resource\/getResourceReqresIn.feature","scenarioResults":[{"sectionIndex":0,"stepResults":[{"result":{"nanos":1224600,"startTime":1751993084017,"endTime":1751993084018,"millis":1.2246,"status":"passed"},"step":{"background":true,"line":4,"prefix":"*","index":0,"text":"url 'https:\/\/reqres.in'"},"stepLog":"11:44:43.980 karate.env system property was: null \n"},{"result":{"nanos":603500,"startTime":1751993084027,"endTime":1751993084028,"millis":0.6035,"status":"passed"},"step":{"background":true,"line":5,"prefix":"*","index":1,"text":"header X-Api-Key = 'reqres-free-v1'"}},{"result":{"nanos":16808500,"startTime":1751993084028,"endTime":1751993084045,"millis":16.8085,"status":"passed"},"step":{"line":10,"prefix":"Given","index":0,"text":"path 'api','unknown'"}},{"result":{"nanos":915127000,"startTime":1751993084045,"endTime":1751993084960,"millis":915.127,"status":"passed"},"step":{"line":11,"prefix":"When","index":1,"text":"method get"},"stepLog":"11:44:44.413 request:\n1 > GET https:\/\/reqres.in\/api\/unknown\n1 > X-Api-Key: reqres-free-v1\n1 > Host: reqres.in\n1 > Connection: Keep-Alive\n1 > User-Agent: Apache-HttpClient\/4.5.14 (Java\/17.0.4.1)\n1 > Accept-Encoding: gzip,deflate\n\n\n11:44:44.956 response time in milliseconds: 539\n1 < 200\n1 < Date: Tue, 08 Jul 2025 16:44:43 GMT\n1 < Content-Type: application\/json; charset=utf-8\n1 < Transfer-Encoding: chunked\n1 < Connection: keep-alive\n1 < Report-To: {\"group\":\"heroku-nel\",\"max_age\":3600,\"endpoints\":[{\"url\":\"https:\/\/nel.heroku.com\/reports?ts=1751986883&sid=c4c9725f-1ab0-44d8-820f-430df2718e11&s=4LZNjmkhD11RGLWd6IfVpSM3SWTVGUzz9sQgaqsCoJA%3D\"}]}\n1 < Reporting-Endpoints: heroku-nel=https:\/\/nel.heroku.com\/reports?ts=1751986883&sid=c4c9725f-1ab0-44d8-820f-430df2718e11&s=4LZNjmkhD11RGLWd6IfVpSM3SWTVGUzz9sQgaqsCoJA%3D\n1 < Nel: {\"report_to\":\"heroku-nel\",\"max_age\":3600,\"success_fraction\":0.005,\"failure_fraction\":0.05,\"response_headers\":[\"Via\"]}\n1 < Access-Control-Allow-Origin: *\n1 < X-Request-Id: 1afd027b-8a9e-44a0-b0e3-af0470835092\n1 < X-Content-Type-Options: nosniff\n1 < X-Frame-Options: DENY\n1 < X-Xss-Protection: 1; mode=block\n1 < Referrer-Policy: strict-origin-when-cross-origin\n1 < Ratelimit-Policy: 100;w=60\n1 < Ratelimit-Limit: 100\n1 < Ratelimit-Remaining: 98\n1 < Ratelimit-Reset: 60\n1 < Etag: W\/\"2fb-zJ\/iiAzm4zf7SruyfEtNo0xEDoY\"\n1 < Via: 1.1 vegur\n1 < Cache-Control: max-age=14400\n1 < CF-Cache-Status: HIT\n1 < Age: 6200\n1 < Vary: Accept-Encoding\n1 < Server: cloudflare\n1 < CF-RAY: 95c10c44da4ba4d9-MIA\n1 < server-timing: cfL4;desc=\"?proto=TCP&rtt=85649&min_rtt=80131&rtt_var=32207&sent=7&recv=7&lost=0&retrans=0&sent_bytes=3106&recv_bytes=786&delivery_rate=35670&cwnd=252&unsent_bytes=0&cid=8fe196b9236cb729&ts=239&x=0\"\n{\"page\":1,\"per_page\":6,\"total\":12,\"total_pages\":2,\"data\":[{\"id\":1,\"name\":\"cerulean\",\"year\":2000,\"color\":\"#98B2D1\",\"pantone_value\":\"15-4020\"},{\"id\":2,\"name\":\"fuchsia rose\",\"year\":2001,\"color\":\"#C74375\",\"pantone_value\":\"17-2031\"},{\"id\":3,\"name\":\"true red\",\"year\":2002,\"color\":\"#BF1932\",\"pantone_value\":\"19-1664\"},{\"id\":4,\"name\":\"aqua sky\",\"year\":2003,\"color\":\"#7BC4C4\",\"pantone_value\":\"14-4811\"},{\"id\":5,\"name\":\"tigerlily\",\"year\":2004,\"color\":\"#E2583E\",\"pantone_value\":\"17-1456\"},{\"id\":6,\"name\":\"blue turquoise\",\"year\":2005,\"color\":\"#53B0AE\",\"pantone_value\":\"15-5217\"}],\"support\":{\"url\":\"https:\/\/contentcaddy.io?utm_source=reqres&utm_medium=json&utm_campaign=referral\",\"text\":\"Tired of writing endless social media content? Let Content Caddy generate it for you.\"}}\n\n"},{"result":{"nanos":5700,"startTime":1751993084959,"endTime":1751993084959,"millis":0.0057,"status":"passed"},"step":{"line":12,"prefix":"Then","index":2,"text":"status 200"}},{"result":{"nanos":6289200,"startTime":1751993084959,"endTime":1751993084965,"millis":6.2892,"status":"passed"},"step":{"line":14,"prefix":"*","index":3,"text":"def resources = response.data"}},{"result":{"nanos":18024800,"startTime":1751993084965,"endTime":1751993084983,"millis":18.0248,"status":"passed"},"step":{"line":16,"prefix":"And","index":4,"text":"match each resources contains deep { \"year\": '#number' }"}}],"executorName":"pool-2-thread-1","line":8,"name":"Validar función de Get Resource por API","description":"","durationMillis":958.0833,"startTime":1751993083771,"failed":false,"refId":"[1:8]","endTime":1751993084984,"exampleIndex":-1}],"callDepth":0,"name":"Probar API de Obtener recurso de la página Reqres.In","description":"","resultDate":"2025-07-08 11:44:44 a. m.","durationMillis":958.0833,"passedCount":1}