{"failedCount":0,"prefixedPath":"classpath:examples\/users\/usersReqresIn.feature","packageQualifiedName":"examples.users.usersReqresIn","loopIndex":-1,"relativePath":"examples\/users\/usersReqresIn.feature","scenarioResults":[{"sectionIndex":0,"stepResults":[{"result":{"nanos":1100000,"startTime":1751993084017,"endTime":1751993084018,"millis":1.1,"status":"passed"},"step":{"background":true,"line":4,"prefix":"*","index":0,"text":"url 'https:\/\/reqres.in'"},"stepLog":"11:44:43.980 karate.env system property was: null \n"},{"result":{"nanos":778300,"startTime":1751993084027,"endTime":1751993084028,"millis":0.7783,"status":"passed"},"step":{"background":true,"line":5,"prefix":"*","index":1,"text":"header X-Api-Key = 'reqres-free-v1'"}},{"result":{"nanos":15456000,"startTime":1751993084028,"endTime":1751993084043,"millis":15.456,"status":"passed"},"step":{"line":10,"prefix":"Given","index":0,"text":"path 'api','users'"}},{"result":{"nanos":14439000,"startTime":1751993084043,"endTime":1751993084057,"millis":14.439,"status":"passed"},"step":{"line":11,"prefix":"And","index":1,"text":"param page = 2"}},{"result":{"nanos":901034800,"startTime":1751993084057,"endTime":1751993084958,"millis":901.0348,"status":"passed"},"step":{"line":12,"prefix":"When","index":2,"text":"method get"},"stepLog":"11:44:44.413 request:\n1 > GET https:\/\/reqres.in\/api\/users?page=2\n1 > X-Api-Key: reqres-free-v1\n1 > Host: reqres.in\n1 > Connection: Keep-Alive\n1 > User-Agent: Apache-HttpClient\/4.5.14 (Java\/17.0.4.1)\n1 > Accept-Encoding: gzip,deflate\n\n\n11:44:44.957 response time in milliseconds: 539\n1 < 200\n1 < Date: Tue, 08 Jul 2025 16:44:43 GMT\n1 < Content-Type: application\/json; charset=utf-8\n1 < Transfer-Encoding: chunked\n1 < Connection: keep-alive\n1 < Report-To: {\"group\":\"heroku-nel\",\"max_age\":3600,\"endpoints\":[{\"url\":\"https:\/\/nel.heroku.com\/reports?ts=1751975690&sid=c4c9725f-1ab0-44d8-820f-430df2718e11&s=8HZT95QkLIEfhAPfemBWx8DQkLUIDg3aXsotyo%2FUXhU%3D\"}]}\n1 < Reporting-Endpoints: heroku-nel=https:\/\/nel.heroku.com\/reports?ts=1751975690&sid=c4c9725f-1ab0-44d8-820f-430df2718e11&s=8HZT95QkLIEfhAPfemBWx8DQkLUIDg3aXsotyo%2FUXhU%3D\n1 < Nel: {\"report_to\":\"heroku-nel\",\"max_age\":3600,\"success_fraction\":0.005,\"failure_fraction\":0.05,\"response_headers\":[\"Via\"]}\n1 < Access-Control-Allow-Origin: *\n1 < X-Request-Id: 1aa85e4c-7c2a-4816-ab81-d30f0454e794\n1 < X-Content-Type-Options: nosniff\n1 < X-Frame-Options: DENY\n1 < X-Xss-Protection: 1; mode=block\n1 < Referrer-Policy: strict-origin-when-cross-origin\n1 < Ratelimit-Policy: 100;w=60\n1 < Ratelimit-Limit: 100\n1 < Ratelimit-Remaining: 98\n1 < Ratelimit-Reset: 60\n1 < Etag: W\/\"440-ZjsmMKR8P3usr2uJZbOCGCxC3Uw\"\n1 < Via: 1.1 vegur\n1 < Cache-Control: max-age=14400\n1 < CF-Cache-Status: HIT\n1 < Age: 1292\n1 < Vary: Accept-Encoding\n1 < Server: cloudflare\n1 < CF-RAY: 95c10c44d8467525-MIA\n1 < server-timing: cfL4;desc=\"?proto=TCP&rtt=91872&min_rtt=80224&rtt_var=34286&sent=7&recv=7&lost=0&retrans=0&sent_bytes=3106&recv_bytes=791&delivery_rate=35568&cwnd=252&unsent_bytes=0&cid=bb13f725bee7e879&ts=237&x=0\"\n{\"page\":2,\"per_page\":6,\"total\":12,\"total_pages\":2,\"data\":[{\"id\":7,\"email\":\"michael.lawson@reqres.in\",\"first_name\":\"Michael\",\"last_name\":\"Lawson\",\"avatar\":\"https:\/\/reqres.in\/img\/faces\/7-image.jpg\"},{\"id\":8,\"email\":\"lindsay.ferguson@reqres.in\",\"first_name\":\"Lindsay\",\"last_name\":\"Ferguson\",\"avatar\":\"https:\/\/reqres.in\/img\/faces\/8-image.jpg\"},{\"id\":9,\"email\":\"tobias.funke@reqres.in\",\"first_name\":\"Tobias\",\"last_name\":\"Funke\",\"avatar\":\"https:\/\/reqres.in\/img\/faces\/9-image.jpg\"},{\"id\":10,\"email\":\"byron.fields@reqres.in\",\"first_name\":\"Byron\",\"last_name\":\"Fields\",\"avatar\":\"https:\/\/reqres.in\/img\/faces\/10-image.jpg\"},{\"id\":11,\"email\":\"george.edwards@reqres.in\",\"first_name\":\"George\",\"last_name\":\"Edwards\",\"avatar\":\"https:\/\/reqres.in\/img\/faces\/11-image.jpg\"},{\"id\":12,\"email\":\"rachel.howell@reqres.in\",\"first_name\":\"Rachel\",\"last_name\":\"Howell\",\"avatar\":\"https:\/\/reqres.in\/img\/faces\/12-image.jpg\"}],\"support\":{\"url\":\"https:\/\/contentcaddy.io?utm_source=reqres&utm_medium=json&utm_campaign=referral\",\"text\":\"Tired of writing endless social media content? Let Content Caddy generate it for you.\"}}\n\n"},{"result":{"nanos":21400,"startTime":1751993084958,"endTime":1751993084958,"millis":0.0214,"status":"passed"},"step":{"line":13,"prefix":"Then","index":3,"text":"status 200"}},{"result":{"nanos":8315100,"startTime":1751993084958,"endTime":1751993084966,"millis":8.3151,"status":"passed"},"step":{"line":15,"prefix":"*","index":4,"text":"def primero = response.data[0]"}},{"result":{"nanos":1072700,"startTime":1751993084967,"endTime":1751993084968,"millis":1.0727,"status":"passed"},"step":{"line":16,"prefix":"*","index":5,"text":"header X-Api-Key = 'reqres-free-v1'"}},{"result":{"nanos":6323400,"startTime":1751993084968,"endTime":1751993084974,"millis":6.3234,"status":"passed"},"step":{"line":18,"prefix":"Given","index":6,"text":"path 'api','users', primero.id"}},{"result":{"nanos":282055300,"startTime":1751993084975,"endTime":1751993085257,"millis":282.0553,"status":"passed"},"step":{"line":19,"prefix":"When","index":7,"text":"method get"},"stepLog":"11:44:44.976 request:\n2 > GET https:\/\/reqres.in\/api\/users\/7\n2 > X-Api-Key: reqres-free-v1\n2 > Host: reqres.in\n2 > Connection: Keep-Alive\n2 > User-Agent: Apache-HttpClient\/4.5.14 (Java\/17.0.4.1)\n2 > Accept-Encoding: gzip,deflate\n\n\n11:44:45.255 response time in milliseconds: 278\n2 < 200\n2 < Date: Tue, 08 Jul 2025 16:44:43 GMT\n2 < Content-Type: application\/json; charset=utf-8\n2 < Transfer-Encoding: chunked\n2 < Connection: keep-alive\n2 < Report-To: {\"group\":\"heroku-nel\",\"max_age\":3600,\"endpoints\":[{\"url\":\"https:\/\/nel.heroku.com\/reports?ts=1751990993&sid=c4c9725f-1ab0-44d8-820f-430df2718e11&s=JzrscphUTR5yw784fTxTgq8wjj3leti9WUDAT2LvD4Q%3D\"}]}\n2 < Reporting-Endpoints: heroku-nel=https:\/\/nel.heroku.com\/reports?ts=1751990993&sid=c4c9725f-1ab0-44d8-820f-430df2718e11&s=JzrscphUTR5yw784fTxTgq8wjj3leti9WUDAT2LvD4Q%3D\n2 < Nel: {\"report_to\":\"heroku-nel\",\"max_age\":3600,\"success_fraction\":0.005,\"failure_fraction\":0.05,\"response_headers\":[\"Via\"]}\n2 < Access-Control-Allow-Origin: *\n2 < X-Request-Id: dc83cb17-3cbb-4fdc-ae3f-77b5224349d7\n2 < X-Content-Type-Options: nosniff\n2 < X-Frame-Options: DENY\n2 < X-Xss-Protection: 1; mode=block\n2 < Referrer-Policy: strict-origin-when-cross-origin\n2 < Ratelimit-Policy: 100;w=60\n2 < Ratelimit-Limit: 100\n2 < Ratelimit-Remaining: 95\n2 < Ratelimit-Reset: 27\n2 < Etag: W\/\"156-oMlgkyEs6eb1\/fskSNkbJSKBTI8\"\n2 < Via: 1.1 vegur\n2 < Age: 2090\n2 < Cache-Control: max-age=14400\n2 < cf-cache-status: HIT\n2 < Vary: Accept-Encoding\n2 < Server: cloudflare\n2 < CF-RAY: 95c10c46d9c78db8-MIA\n2 < server-timing: cfL4;desc=\"?proto=TCP&rtt=84430&min_rtt=81731&rtt_var=32577&sent=3&recv=5&lost=0&retrans=0&sent_bytes=187&recv_bytes=1195&delivery_rate=17129&cwnd=248&unsent_bytes=0&cid=e7dba17336383226&ts=103&x=0\"\n{\"data\":{\"id\":7,\"email\":\"michael.lawson@reqres.in\",\"first_name\":\"Michael\",\"last_name\":\"Lawson\",\"avatar\":\"https:\/\/reqres.in\/img\/faces\/7-image.jpg\"},\"support\":{\"url\":\"https:\/\/contentcaddy.io?utm_source=reqres&utm_medium=json&utm_campaign=referral\",\"text\":\"Tired of writing endless social media content? Let Content Caddy generate it for you.\"}}\n\n"},{"result":{"nanos":7300,"startTime":1751993085257,"endTime":1751993085257,"millis":0.0073,"status":"passed"},"step":{"line":20,"prefix":"Then","index":8,"text":"status 200"}},{"result":{"nanos":1658300,"startTime":1751993085257,"endTime":1751993085259,"millis":1.6583,"status":"passed"},"step":{"line":21,"prefix":"And","index":9,"text":"match primero.id == 7"}},{"result":{"nanos":631900,"startTime":1751993085258,"endTime":1751993085259,"millis":0.6319,"status":"passed"},"step":{"line":22,"prefix":"And","index":10,"text":"match primero.first_name == 'Michael'"}},{"result":{"nanos":341000,"startTime":1751993085259,"endTime":1751993085259,"millis":0.341,"status":"passed"},"step":{"line":23,"prefix":"And","index":11,"text":"match primero contains { id: '#notnull' , avatar: '#string' }"}}],"executorName":"pool-2-thread-4","line":8,"name":"Obtener todos los usuarios y validar el primero por id","description":"","durationMillis":1233.2345,"startTime":1751993083770,"failed":false,"refId":"[1:8]","endTime":1751993085259,"exampleIndex":-1},{"sectionIndex":1,"stepResults":[{"result":{"nanos":1097200,"startTime":1751993084017,"endTime":1751993084018,"millis":1.0972,"status":"passed"},"step":{"background":true,"line":4,"prefix":"*","index":0,"text":"url 'https:\/\/reqres.in'"},"stepLog":"11:44:43.980 karate.env system property was: null \n"},{"result":{"nanos":675600,"startTime":1751993084027,"endTime":1751993084028,"millis":0.6756,"status":"passed"},"step":{"background":true,"line":5,"prefix":"*","index":1,"text":"header X-Api-Key = 'reqres-free-v1'"}},{"result":{"nanos":17748100,"startTime":1751993084028,"endTime":1751993084046,"millis":17.7481,"status":"passed"},"step":{"line":27,"prefix":"Given","index":0,"text":"path 'api', 'users', '2'"}},{"result":{"nanos":149294200,"startTime":1751993084045,"endTime":1751993084194,"millis":149.2942,"status":"passed"},"step":{"endLine":34,"line":28,"prefix":"And","docString":"{\n   \"name\": \"morpheus\",\n  \"job\": \"zion resident\"\n}","index":1,"text":"def userRequest ="}},{"result":{"nanos":953526800,"startTime":1751993084194,"endTime":1751993085148,"millis":953.5268,"status":"passed"},"step":{"line":35,"prefix":"And","index":2,"text":"method put"},"stepLog":"11:44:44.413 request:\n1 > PUT https:\/\/reqres.in\/api\/users\/2\n1 > X-Api-Key: reqres-free-v1\n1 > Host: reqres.in\n1 > Connection: Keep-Alive\n1 > User-Agent: Apache-HttpClient\/4.5.14 (Java\/17.0.4.1)\n1 > Accept-Encoding: gzip,deflate\n\n\n11:44:45.147 response time in milliseconds: 731\n1 < 200\n1 < Date: Tue, 08 Jul 2025 16:44:43 GMT\n1 < Content-Type: application\/json; charset=utf-8\n1 < Content-Length: 40\n1 < Connection: keep-alive\n1 < CF-RAY: 95c10c44d970b7d3-MIA\n1 < Report-To: {\"group\":\"heroku-nel\",\"max_age\":3600,\"endpoints\":[{\"url\":\"https:\/\/nel.heroku.com\/reports?ts=1751993083&sid=c4c9725f-1ab0-44d8-820f-430df2718e11&s=veEyNDDHhxvJJs2aTyq0H2ddAsjkUAD5BGYKZRmP9xI%3D\"}]}\n1 < Reporting-Endpoints: heroku-nel=https:\/\/nel.heroku.com\/reports?ts=1751993083&sid=c4c9725f-1ab0-44d8-820f-430df2718e11&s=veEyNDDHhxvJJs2aTyq0H2ddAsjkUAD5BGYKZRmP9xI%3D\n1 < Nel: {\"report_to\":\"heroku-nel\",\"max_age\":3600,\"success_fraction\":0.005,\"failure_fraction\":0.05,\"response_headers\":[\"Via\"]}\n1 < Access-Control-Allow-Origin: *\n1 < X-Request-Id: 905fa77f-e65b-4a20-9247-fa4e5235cffa\n1 < X-Content-Type-Options: nosniff\n1 < X-Frame-Options: DENY\n1 < X-Xss-Protection: 1; mode=block\n1 < Referrer-Policy: strict-origin-when-cross-origin\n1 < Ratelimit-Policy: 100;w=60\n1 < Ratelimit-Limit: 100\n1 < Ratelimit-Remaining: 98\n1 < Ratelimit-Reset: 60\n1 < Etag: W\/\"28-7LxIHXlNXX9BnY+3ZnumSOBkpHo\"\n1 < Via: 1.1 vegur\n1 < CF-Cache-Status: DYNAMIC\n1 < Vary: Accept-Encoding\n1 < Server: cloudflare\n1 < server-timing: cfL4;desc=\"?proto=TCP&rtt=85764&min_rtt=80578&rtt_var=32163&sent=7&recv=7&lost=0&retrans=0&sent_bytes=3105&recv_bytes=786&delivery_rate=35623&cwnd=253&unsent_bytes=0&cid=df9dfda83808a10b&ts=437&x=0\"\n{\"updatedAt\":\"2025-07-08T16:44:43.837Z\"}\n\n"},{"result":{"nanos":10900,"startTime":1751993085148,"endTime":1751993085148,"millis":0.0109,"status":"passed"},"step":{"line":36,"prefix":"Then","index":3,"text":"status 200"}},{"result":{"nanos":1399900,"startTime":1751993085148,"endTime":1751993085149,"millis":1.3999,"status":"passed"},"step":{"line":37,"prefix":"And","index":4,"text":"match response contains { \"updatedAt\" : '#present' }"}}],"executorName":"pool-2-thread-5","line":25,"name":"Modificar usuario por id=2","description":"","durationMillis":1123.7527,"startTime":1751993083771,"failed":false,"refId":"[2:25]","endTime":1751993085150,"exampleIndex":-1},{"sectionIndex":2,"stepResults":[{"result":{"nanos":1254200,"startTime":1751993084997,"endTime":1751993084998,"millis":1.2542,"status":"passed"},"step":{"background":true,"line":4,"prefix":"*","index":0,"text":"url 'https:\/\/reqres.in'"},"stepLog":"11:44:44.992 karate.env system property was: null \n"},{"result":{"nanos":378400,"startTime":1751993084998,"endTime":1751993084998,"millis":0.3784,"status":"passed"},"step":{"background":true,"line":5,"prefix":"*","index":1,"text":"header X-Api-Key = 'reqres-free-v1'"}},{"result":{"nanos":1264700,"startTime":1751993084999,"endTime":1751993085000,"millis":1.2647,"status":"passed"},"step":{"line":41,"prefix":"Given","index":0,"text":"path 'api', 'users', '2'"}},{"result":{"nanos":472929400,"startTime":1751993085000,"endTime":1751993085473,"millis":472.9294,"status":"passed"},"step":{"line":42,"prefix":"And","index":1,"text":"method delete"},"stepLog":"11:44:45.002 request:\n1 > DELETE https:\/\/reqres.in\/api\/users\/2\n1 > X-Api-Key: reqres-free-v1\n1 > Host: reqres.in\n1 > Connection: Keep-Alive\n1 > User-Agent: Apache-HttpClient\/4.5.14 (Java\/17.0.4.1)\n1 > Accept-Encoding: gzip,deflate\n\n\n11:44:45.472 response time in milliseconds: 469\n1 < 204\n1 < Date: Tue, 08 Jul 2025 16:44:44 GMT\n1 < Connection: keep-alive\n1 < CF-RAY: 95c10c4719714f21-MIA\n1 < Report-To: {\"group\":\"heroku-nel\",\"max_age\":3600,\"endpoints\":[{\"url\":\"https:\/\/nel.heroku.com\/reports?ts=1751993084&sid=c4c9725f-1ab0-44d8-820f-430df2718e11&s=lWDxHlXNSllmFTMDI8%2F6Y%2FYuVFr3W%2BnFjG7%2BzerSc9w%3D\"}]}\n1 < Reporting-Endpoints: heroku-nel=https:\/\/nel.heroku.com\/reports?ts=1751993084&sid=c4c9725f-1ab0-44d8-820f-430df2718e11&s=lWDxHlXNSllmFTMDI8%2F6Y%2FYuVFr3W%2BnFjG7%2BzerSc9w%3D\n1 < Nel: {\"report_to\":\"heroku-nel\",\"max_age\":3600,\"success_fraction\":0.005,\"failure_fraction\":0.05,\"response_headers\":[\"Via\"]}\n1 < Access-Control-Allow-Origin: *\n1 < X-Request-Id: f8bee109-9220-4639-a7da-43a95a70ee7b\n1 < X-Content-Type-Options: nosniff\n1 < X-Frame-Options: DENY\n1 < X-Xss-Protection: 1; mode=block\n1 < Referrer-Policy: strict-origin-when-cross-origin\n1 < Ratelimit-Policy: 100;w=60\n1 < Ratelimit-Limit: 100\n1 < Ratelimit-Remaining: 92\n1 < Ratelimit-Reset: 60\n1 < Etag: W\/\"2-vyGp6PvFo4RvsFtPoIWeCReyIC8\"\n1 < Via: 1.1 vegur\n1 < cf-cache-status: DYNAMIC\n1 < Server: cloudflare\n1 < server-timing: cfL4;desc=\"?proto=TCP&rtt=83475&min_rtt=81716&rtt_var=26088&sent=6&recv=7&lost=0&retrans=0&sent_bytes=3107&recv_bytes=789&delivery_rate=46670&cwnd=252&unsent_bytes=0&cid=5618bdc6e522805e&ts=301&x=0\"\n\n\n"},{"result":{"nanos":7300,"startTime":1751993085473,"endTime":1751993085473,"millis":0.0073,"status":"passed"},"step":{"line":43,"prefix":"Then","index":2,"text":"status 204"}}],"executorName":"pool-2-thread-1","line":39,"name":"Eliminar usuario","description":"","durationMillis":475.834,"startTime":1751993084989,"failed":false,"refId":"[3:39]","endTime":1751993085473,"exampleIndex":-1}],"callDepth":0,"name":"Probar API de Usuarios de la página Reqres.In","description":"","resultDate":"2025-07-08 11:44:45 a. m.","durationMillis":2832.8212,"passedCount":3}